…
Select columns
--------------

To take specific columns we can use the function ``select()``. This
function takes at least two **arguments** (inputs). The first must be
the name of the data frame (e.g., ``penguins``). Any subsequent
arguments must be column names.

.. code:: r

   select(penguins,species, body_mass_g, sex)

::

   ## # A tibble: 344 × 3
   ##    species body_mass_g sex   
   ##    <chr>         <dbl> <chr> 
   ##  1 Adelie         3750 male  
   ##  2 Adelie         3800 female
   ##  3 Adelie         3250 female
   ##  4 Adelie           NA <NA>  
   ##  5 Adelie         3450 female
   ##  6 Adelie         3650 male  
   ##  7 Adelie         3625 female
   ##  8 Adelie         4675 male  
   ##  9 Adelie         3475 <NA>  
   ## 10 Adelie         4250 <NA>  
   ## # … with 334 more rows

We can also use ``columnA:columnB`` to select all of the columns from
``columnA`` to ``columnB``.

.. code:: r

   select(penguins, species:body_mass_g)

::

   ## # A tibble: 344 × 6
   ##    species island    bill_length_mm bill_depth_mm flipper_length_mm body_mass_g
   ##    <chr>   <chr>              <dbl>         <dbl>             <dbl>       <dbl>
   ##  1 Adelie  Torgersen           39.1          18.7               181        3750
   ##  2 Adelie  Torgersen           39.5          17.4               186        3800
   ##  3 Adelie  Torgersen           40.3          18                 195        3250
   ##  4 Adelie  Torgersen           NA            NA                  NA          NA
   ##  5 Adelie  Torgersen           36.7          19.3               193        3450
   ##  6 Adelie  Torgersen           39.3          20.6               190        3650
   ##  7 Adelie  Torgersen           38.9          17.8               181        3625
   ##  8 Adelie  Torgersen           39.2          19.6               195        4675
   ##  9 Adelie  Torgersen           34.1          18.1               193        3475
   ## 10 Adelie  Torgersen           42            20.2               190        4250
   ## # … with 334 more rows

If we put a ``-`` before the column names, we will include all but those
columns.

.. code:: r

   select(penguins, -year, -island)

::

   ## # A tibble: 344 × 6
   ##    species bill_length_mm bill_depth_mm flipper_length_mm body_mass_g sex   
   ##    <chr>            <dbl>         <dbl>             <dbl>       <dbl> <chr> 
   ##  1 Adelie            39.1          18.7               181        3750 male  
   ##  2 Adelie            39.5          17.4               186        3800 female
   ##  3 Adelie            40.3          18                 195        3250 female
   ##  4 Adelie            NA            NA                  NA          NA <NA>  
   ##  5 Adelie            36.7          19.3               193        3450 female
   ##  6 Adelie            39.3          20.6               190        3650 male  
   ##  7 Adelie            38.9          17.8               181        3625 female
   ##  8 Adelie            39.2          19.6               195        4675 male  
   ##  9 Adelie            34.1          18.1               193        3475 <NA>  
   ## 10 Adelie            42            20.2               190        4250 <NA>  
   ## # … with 334 more rows

We can also use the function ``starts_with()`` to return a data frame
with columns starting with certain characters. Note you will need to put
the characters in quotes.

.. code:: r

   select(penguins, starts_with("bill"))

::

   ## # A tibble: 344 × 2
   ##    bill_length_mm bill_depth_mm
   ##             <dbl>         <dbl>
   ##  1           39.1          18.7
   ##  2           39.5          17.4
   ##  3           40.3          18  
   ##  4           NA            NA  
   ##  5           36.7          19.3
   ##  6           39.3          20.6
   ##  7           38.9          17.8
   ##  8           39.2          19.6
   ##  9           34.1          18.1
   ## 10           42            20.2
   ## # … with 334 more rows

We can accomplish a similar task with ``ends_with()``.

.. code:: r

   select(penguins, ends_with("mm"))

::

   ## # A tibble: 344 × 3
   ##    bill_length_mm bill_depth_mm flipper_length_mm
   ##             <dbl>         <dbl>             <dbl>
   ##  1           39.1          18.7               181
   ##  2           39.5          17.4               186
   ##  3           40.3          18                 195
   ##  4           NA            NA                  NA
   ##  5           36.7          19.3               193
   ##  6           39.3          20.6               190
   ##  7           38.9          17.8               181
   ##  8           39.2          19.6               195
   ##  9           34.1          18.1               193
   ## 10           42            20.2               190
   ## # … with 334 more rows
Filtering rows
--------------

We can also subset the data frame based on certain conditions with the
``filter()`` function. For instance, we can pick all of the samples from
a specific ``island`` using the ``==`` operator. Note that a single
``=`` does not work for this.

.. code:: r

   filter(penguins, island=="Torgersen")

::

   ## # A tibble: 52 × 8
   ##    species island    bill_length_mm bill_depth_mm flipper_length_mm body_mass_g
   ##    <chr>   <chr>              <dbl>         <dbl>             <dbl>       <dbl>
   ##  1 Adelie  Torgersen           39.1          18.7               181        3750
   ##  2 Adelie  Torgersen           39.5          17.4               186        3800
   ##  3 Adelie  Torgersen           40.3          18                 195        3250
   ##  4 Adelie  Torgersen           NA            NA                  NA          NA
   ##  5 Adelie  Torgersen           36.7          19.3               193        3450
   ##  6 Adelie  Torgersen           39.3          20.6               190        3650
   ##  7 Adelie  Torgersen           38.9          17.8               181        3625
   ##  8 Adelie  Torgersen           39.2          19.6               195        4675
   ##  9 Adelie  Torgersen           34.1          18.1               193        3475
   ## 10 Adelie  Torgersen           42            20.2               190        4250
   ## # … with 42 more rows, and 2 more variables: sex <chr>, year <dbl>

We can also use other conditions, like inequalities. - less than: ``<``
- less than or equal to: ``<=`` - greater than: ``>`` - greater than or
equal to: ``>=``

.. code:: r

   filter (penguins, year<=2008)

::

   ## # A tibble: 224 × 8
   ##    species island    bill_length_mm bill_depth_mm flipper_length_mm body_mass_g
   ##    <chr>   <chr>              <dbl>         <dbl>             <dbl>       <dbl>
   ##  1 Adelie  Torgersen           39.1          18.7               181        3750
   ##  2 Adelie  Torgersen           39.5          17.4               186        3800
   ##  3 Adelie  Torgersen           40.3          18                 195        3250
   ##  4 Adelie  Torgersen           NA            NA                  NA          NA
   ##  5 Adelie  Torgersen           36.7          19.3               193        3450
   ##  6 Adelie  Torgersen           39.3          20.6               190        3650
   ##  7 Adelie  Torgersen           38.9          17.8               181        3625
   ##  8 Adelie  Torgersen           39.2          19.6               195        4675
   ##  9 Adelie  Torgersen           34.1          18.1               193        3475
   ## 10 Adelie  Torgersen           42            20.2               190        4250
   ## # … with 214 more rows, and 2 more variables: sex <chr>, year <dbl>

We can use multiple conditions at the same time, as well.

.. code:: r

   filter (penguins, island=="Torgersen", sex=="male")

::

   ## # A tibble: 23 × 8
   ##    species island    bill_length_mm bill_depth_mm flipper_length_mm body_mass_g
   ##    <chr>   <chr>              <dbl>         <dbl>             <dbl>       <dbl>
   ##  1 Adelie  Torgersen           39.1          18.7               181        3750
   ##  2 Adelie  Torgersen           39.3          20.6               190        3650
   ##  3 Adelie  Torgersen           39.2          19.6               195        4675
   ##  4 Adelie  Torgersen           38.6          21.2               191        3800
   ##  5 Adelie  Torgersen           34.6          21.1               198        4400
   ##  6 Adelie  Torgersen           42.5          20.7               197        4500
   ##  7 Adelie  Torgersen           46            21.5               194        4200
   ##  8 Adelie  Torgersen           41.8          19.4               198        4450
   ##  9 Adelie  Torgersen           39.7          18.4               190        3900
   ## 10 Adelie  Torgersen           45.8          18.9               197        4150
   ## # … with 13 more rows, and 2 more variables: sex <chr>, year <dbl>

We can use complex conditions too, such as putting ``|`` between two
conditions. ``|`` means “or”, so the only rows that are kept must
satisfy one condition or the other. You can do a similar operation with
``&``, which means “and”.

.. code:: r

   filter(penguins, species == "Chinstrap" | species == "Gentoo")

::

   ## # A tibble: 192 × 8
   ##    species island bill_length_mm bill_depth_mm flipper_length_mm body_mass_g
   ##    <chr>   <chr>           <dbl>         <dbl>             <dbl>       <dbl>
   ##  1 Gentoo  Biscoe           46.1          13.2               211        4500
   ##  2 Gentoo  Biscoe           50            16.3               230        5700
   ##  3 Gentoo  Biscoe           48.7          14.1               210        4450
   ##  4 Gentoo  Biscoe           50            15.2               218        5700
   ##  5 Gentoo  Biscoe           47.6          14.5               215        5400
   ##  6 Gentoo  Biscoe           46.5          13.5               210        4550
   ##  7 Gentoo  Biscoe           45.4          14.6               211        4800
   ##  8 Gentoo  Biscoe           46.7          15.3               219        5200
   ##  9 Gentoo  Biscoe           43.3          13.4               209        4400
   ## 10 Gentoo  Biscoe           46.8          15.4               215        5150
   ## # … with 182 more rows, and 2 more variables: sex <chr>, year <dbl>

The ``%in%`` operator checks to see if values are contained in a given
vector.

.. code:: r

   filter(penguins, species %in% c("Chinstrap", "Gentoo"))

::

   ## # A tibble: 192 × 8
   ##    species island bill_length_mm bill_depth_mm flipper_length_mm body_mass_g
   ##    <chr>   <chr>           <dbl>         <dbl>             <dbl>       <dbl>
   ##  1 Gentoo  Biscoe           46.1          13.2               211        4500
   ##  2 Gentoo  Biscoe           50            16.3               230        5700
   ##  3 Gentoo  Biscoe           48.7          14.1               210        4450
   ##  4 Gentoo  Biscoe           50            15.2               218        5700
   ##  5 Gentoo  Biscoe           47.6          14.5               215        5400
   ##  6 Gentoo  Biscoe           46.5          13.5               210        4550
   ##  7 Gentoo  Biscoe           45.4          14.6               211        4800
   ##  8 Gentoo  Biscoe           46.7          15.3               219        5200
   ##  9 Gentoo  Biscoe           43.3          13.4               209        4400
   ## 10 Gentoo  Biscoe           46.8          15.4               215        5150
   ## # … with 182 more rows, and 2 more variables: sex <chr>, year <dbl>
…
We can also only return samples without missing data using ``!``, which
means “not”, before ``is.na()``.

.. code:: r

   filter(penguins, !is.na(sex))

::

   ## # A tibble: 333 × 8
   ##    species island    bill_length_mm bill_depth_mm flipper_length_mm body_mass_g
   ##    <chr>   <chr>              <dbl>         <dbl>             <dbl>       <dbl>
   ##  1 Adelie  Torgersen           39.1          18.7               181        3750
   ##  2 Adelie  Torgersen           39.5          17.4               186        3800
   ##  3 Adelie  Torgersen           40.3          18                 195        3250
   ##  4 Adelie  Torgersen           36.7          19.3               193        3450
   ##  5 Adelie  Torgersen           39.3          20.6               190        3650
   ##  6 Adelie  Torgersen           38.9          17.8               181        3625
   ##  7 Adelie  Torgersen           39.2          19.6               195        4675
   ##  8 Adelie  Torgersen           41.1          17.6               182        3200
   ##  9 Adelie  Torgersen           38.6          21.2               191        3800
   ## 10 Adelie  Torgersen           34.6          21.1               198        4400
   ## # … with 323 more rows, and 2 more variables: sex <chr>, year <dbl>
…
Frequently you’ll want to create new columns based on the values in
existing columns for tasks like unit conversion or finding the ratio of
values in two columns. For this, we’ll use ``mutate()``.

We might be interested in the body mass of penguins in kg instead of g:

.. code:: r

   penguins %>%
       mutate(body_mass_kg = body_mass_g / 1000)

::

   ## # A tibble: 344 × 9
   ##    species island    bill_length_mm bill_depth_mm flipper_length_mm body_mass_g
   ##    <chr>   <chr>              <dbl>         <dbl>             <dbl>       <dbl>
   ##  1 Adelie  Torgersen           39.1          18.7               181        3750
   ##  2 Adelie  Torgersen           39.5          17.4               186        3800
   ##  3 Adelie  Torgersen           40.3          18                 195        3250
   ##  4 Adelie  Torgersen           NA            NA                  NA          NA
   ##  5 Adelie  Torgersen           36.7          19.3               193        3450
   ##  6 Adelie  Torgersen           39.3          20.6               190        3650
   ##  7 Adelie  Torgersen           38.9          17.8               181        3625
   ##  8 Adelie  Torgersen           39.2          19.6               195        4675
   ##  9 Adelie  Torgersen           34.1          18.1               193        3475
   ## 10 Adelie  Torgersen           42            20.2               190        4250
   ## # … with 334 more rows, and 3 more variables: sex <chr>, year <dbl>,
   ## #   body_mass_kg <dbl>
…
Arrange the order of your rows
------------------------------

The default is to arrange in ascending order. You can use the ``desc()``
function on the variable inside ``arrange()`` to arrange in descending
order.

.. code:: r

   penguins %>%
     arrange(body_mass_g)

::

   ## # A tibble: 344 × 8
   ##    species   island    bill_length_mm bill_depth_mm flipper_length_… body_mass_g
   ##    <chr>     <chr>              <dbl>         <dbl>            <dbl>       <dbl>
   ##  1 Chinstrap Dream               46.9          16.6              192        2700
   ##  2 Adelie    Biscoe              36.5          16.6              181        2850
   ##  3 Adelie    Biscoe              36.4          17.1              184        2850
   ##  4 Adelie    Biscoe              34.5          18.1              187        2900
   ##  5 Adelie    Dream               33.1          16.1              178        2900
   ##  6 Adelie    Torgersen           38.6          17                188        2900
   ##  7 Chinstrap Dream               43.2          16.6              187        2900
   ##  8 Adelie    Biscoe              37.9          18.6              193        2925
   ##  9 Adelie    Dream               37.5          18.9              179        2975
   ## 10 Adelie    Dream               37            16.9              185        3000
   ## # … with 334 more rows, and 2 more variables: sex <chr>, year <dbl>

We can rename columns using the ``rename()`` functions.

.. code:: r

   penguins %>% 
     rename(bill_length = bill_length_mm)

::

   ## # A tibble: 344 × 8
   ##    species island   bill_length bill_depth_mm flipper_length_… body_mass_g sex  
   ##    <chr>   <chr>          <dbl>         <dbl>            <dbl>       <dbl> <chr>
   ##  1 Adelie  Torgers…        39.1          18.7              181        3750 male 
   ##  2 Adelie  Torgers…        39.5          17.4              186        3800 fema…
   ##  3 Adelie  Torgers…        40.3          18                195        3250 fema…
   ##  4 Adelie  Torgers…        NA            NA                 NA          NA <NA> 
   ##  5 Adelie  Torgers…        36.7          19.3              193        3450 fema…
   ##  6 Adelie  Torgers…        39.3          20.6              190        3650 male 
   ##  7 Adelie  Torgers…        38.9          17.8              181        3625 fema…
   ##  8 Adelie  Torgers…        39.2          19.6              195        4675 male 
   ##  9 Adelie  Torgers…        34.1          18.1              193        3475 <NA> 
   ## 10 Adelie  Torgers…        42            20.2              190        4250 <NA> 
   ## # … with 334 more rows, and 1 more variable: year <dbl>
…
.. code:: r

   penguins %>%
     mutate(body_type = case_when(
          body_mass_g < 3000 ~ "small",
          body_mass_g >= 3000 & body_mass_g < 4500 ~ "normal",
          body_mass_g >= 4500 ~ "large"))

::

   ## # A tibble: 344 × 9
   ##    species island    bill_length_mm bill_depth_mm flipper_length_mm body_mass_g
   ##    <chr>   <chr>              <dbl>         <dbl>             <dbl>       <dbl>
   ##  1 Adelie  Torgersen           39.1          18.7               181        3750
   ##  2 Adelie  Torgersen           39.5          17.4               186        3800
   ##  3 Adelie  Torgersen           40.3          18                 195        3250
   ##  4 Adelie  Torgersen           NA            NA                  NA          NA
   ##  5 Adelie  Torgersen           36.7          19.3               193        3450
   ##  6 Adelie  Torgersen           39.3          20.6               190        3650
   ##  7 Adelie  Torgersen           38.9          17.8               181        3625
   ##  8 Adelie  Torgersen           39.2          19.6               195        4675
   ##  9 Adelie  Torgersen           34.1          18.1               193        3475
   ## 10 Adelie  Torgersen           42            20.2               190        4250
   ## # … with 334 more rows, and 3 more variables: sex <chr>, year <dbl>,
   ## #   body_type <chr>
…
Sometimes, it might be more useful to have data in a **wide** format,
where columns represent different values or levels of a variable. We can
reshape our data using two tidyr functions, ``pivot_wider()`` and
``pivot_longer()``.

.. code:: r

   penguins %>%
     pivot_longer(contains("_"))

::

   ## # A tibble: 1,376 × 6
   ##    species island    sex     year name               value
   ##    <chr>   <chr>     <chr>  <dbl> <chr>              <dbl>
   ##  1 Adelie  Torgersen male    2007 bill_length_mm      39.1
   ##  2 Adelie  Torgersen male    2007 bill_depth_mm       18.7
   ##  3 Adelie  Torgersen male    2007 flipper_length_mm  181  
   ##  4 Adelie  Torgersen male    2007 body_mass_g       3750  
   ##  5 Adelie  Torgersen female  2007 bill_length_mm      39.5
   ##  6 Adelie  Torgersen female  2007 bill_depth_mm       17.4
   ##  7 Adelie  Torgersen female  2007 flipper_length_mm  186  
   ##  8 Adelie  Torgersen female  2007 body_mass_g       3800  
   ##  9 Adelie  Torgersen female  2007 bill_length_mm      40.3
   ## 10 Adelie  Torgersen female  2007 bill_depth_mm       18  
   ## # … with 1,366 more rows
…
