Text Mining with R - DeisData
…
tidy_obama<- tidy(obama_dfm)

Sentiment analysis#

We can use sentiment analysis to label text by its tone. We use a
lexicon to determine whether words can be labeled as positive, negative,
or neutral. The three general-purpose lexicons are AFINN, bing, and nrc.

get_sentiments("bing")

# A tibble: 6,786 × 2
   word        sentiment
   <chr>       <chr>
 1 2-faces     negative
 2 abnormal    negative
 3 abolish     negative
 4 abominable  negative
 5 abominably  negative
 6 abominate   negative
 7 abomination negative
 8 abort       negative
 9 aborted     negative
10 aborts      negative
# … with 6,776 more rows
…
